[
  {
    "model": "app_ccf.distributorxref",
    "pk": "802122",
    "fields": {
      "name": "OSI Baltimore Promise",
      "manager": "OSI Baltimore Promise"
    }
  },
  {
    "model": "app_ccf.distributorxref",
    "pk": "802123",
    "fields": {
      "name": "Bon Secours Community Works",
      "manager": "Bon Secours Community Works"
    }
  },
  {
    "model": "app_ccf.distributorxref",
    "pk": "802124",
    "fields": {
      "name": "Banner Neighborhoods Community Corporation",
      "manager": "Banner Neighborhoods Community Corporation"
    }
  },
  {
    "model": "app_ccf.distributorxref",
    "pk": "802125",
    "fields": {
      "name": "CASA of Maryland, Inc.",
      "manager": "CASA of Maryland, Inc."
    }
  },
  {
    "model": "app_ccf.distributorxref",
    "pk": "802126",
    "fields": {
      "name": "Center for Urban Families",
      "manager": "Center for Urban Families"
    }
  },
  {
    "model": "app_ccf.distributorxref",
    "pk": "802127",
    "fields": {
      "name": "City of Refuge Baltimore",
      "manager": "City of Refuge Baltimore"
    }
  },
  {
    "model": "app_ccf.distributorxref",
    "pk": "802128",
    "fields": {
      "name": "Elev8 Baltimore",
      "manager": "Elev8 Baltimore"
    }
  },
  {
    "model": "app_ccf.distributorxref",
    "pk": "802130",
    "fields": {
      "name": "Esperanza Center (Catholic Charities of Baltimore)",
      "manager": "Esperanza Center (Catholic Charities of Baltimore)"
    }
  },
  {
    "model": "app_ccf.distributorxref",
    "pk": "802131",
    "fields": {
      "name": "Urban Strategies Baltimore",
      "manager": "Urban Strategies Baltimore"
    }
  },
  {
    "model": "app_ccf.distributorxref",
    "pk": "802132",
    "fields": {
      "name": "Job Opportunities Task Force",
      "manager": "Job Opportunities Task Force"
    }
  },
  {
    "model": "app_ccf.distributorxref",
    "pk": "802133",
    "fields": {
      "name": "Historic East Baltimore Community Action Coalition",
      "manager": "Banner Neighborhoods Community Corporation"
    }
  },
  {
    "model": "app_ccf.distributorxref",
    "pk": "802134",
    "fields": {
      "name": "Safe Streets – Park Heights Renaissance",
      "manager": "Center for Urban Families"
    }
  },
  {
    "model": "app_ccf.distributorxref",
    "pk": "802135",
    "fields": {
      "name": "Safe Streets – Cherry Hill",
      "manager": "Elev8 Baltimore"
    }
  },
  {
    "model": "app_ccf.distributorxref",
    "pk": "802136",
    "fields": {
      "name": "Roca",
      "manager": "Center for Urban Families"
    }
  }
]
